C:\connexo-gui\src\test\java\Runner\TestRunner.java
C:\connexo-gui\src\test\java\stepDefs\usableSteps.java
C:\connexo-gui\src\test\java\Pages\devicePage.java
C:\connexo-gui\src\test\java\Pages\adminPage.java
C:\connexo-gui\src\test\java\Pages\commandsPage.java
C:\connexo-gui\src\test\java\Pages\loginPage.java
C:\connexo-gui\src\test\java\Pages\timeOfUsePage.java
C:\connexo-gui\src\test\java\Pages\startProcessPage.java
C:\connexo-gui\src\test\java\Pages\firmwarePage.java
C:\connexo-gui\src\test\java\stepDefs\createMasterDevice.java
C:\connexo-gui\src\test\java\Config\Config_Connexo.java
C:\connexo-gui\src\test\java\stepDefs\checkProcessStatus.java
C:\connexo-gui\src\test\java\Hooks\Hooks.java
C:\connexo-gui\src\test\java\stepDefs\Login.java
C:\connexo-gui\src\test\java\Pages\securityAccessorsPage.java
C:\connexo-gui\src\test\java\stepDefs\GenericFunctions.java
C:\connexo-gui\src\test\java\Pages\addDevicePage.java
C:\connexo-gui\src\test\java\Pages\registersPage.java
C:\connexo-gui\src\test\java\Config\driver.java
C:\connexo-gui\src\test\java\Pages\GenericPage.java
